Cluster analysis of college major and salary in R
…
High paying careers

arrange(df.labelled,desc(Career.Percent.Growth))

## # A tibble: 50 x 9
##    College.Major Starting.Median~ Mid.Career.Medi~ Career.Percent.~
##    <chr>                    <dbl>            <dbl>            <dbl>
##  1 Math                     45400            92400            104. 
##  2 Philosophy               39900            81200            104. 
##  3 Internationa~            40900            80900             97.8
##  4 Economics                50100            98600             96.8
##  5 Marketing                40800            79600             95.1
##  6 Physics                  50300            97300             93.4
##  7 Political Sc~            40800            78200             91.7
##  8 Chemistry                42600            79900             87.6
##  9 Journalism               35600            66700             87.4
## 10 Architecture             41600            76800             84.6
## # ... with 40 more rows, and 5 more variables: Percentile.10 <dbl>,
## #   Percentile.25 <dbl>, Percentile.75 <dbl>, Percentile.90 <dbl>,
## #   clusters <int>
